R in Medicine-Data Challenge
…
Regression Results

ITT: IP BUP v. Outpatient

# A tibble: 2 × 7
  term        estimate std.error statistic  p.value conf.low conf.high
  <chr>          <dbl>     <dbl>     <dbl>    <dbl>    <dbl>     <dbl>
1 (Intercept)   0.0811   0.00152      53.2 0          0.0781    0.0840
2 treated      -0.0422   0.00252     -16.7 1.26e-62  -0.0472   -0.0373

First Stage: IP BUP v. Outpatient

LATE: IP BUP v. Outpatient

# A tibble: 58 × 7
   term             estimate std.error statistic  p.value conf.low conf.high
   <chr>               <dbl>     <dbl>     <dbl>    <dbl>    <dbl>     <dbl>
 1 (Intercept)       -0.0212    0.0156     -1.37 1.72e- 1  -0.0518   0.00925
 2 ip_pred           -1.80      0.106     -17.0  2.53e-64  -2.01    -1.60   
 3 as.factor(age)19   0.0637    0.0158      4.03 5.69e- 5   0.0327   0.0948 
 4 as.factor(age)20   0.134     0.0148      9.03 1.71e-19   0.105    0.163  
 5 as.factor(age)21   0.0856    0.0146      5.87 4.39e- 9   0.0570   0.114  
 6 as.factor(age)22   0.0610    0.0139      4.39 1.16e- 5   0.0337   0.0882 
 7 as.factor(age)23   0.149     0.0132     11.3  1.13e-29   0.123    0.175  
 8 as.factor(age)24   0.0867    0.0132      6.57 5.05e-11   0.0608   0.113  
 9 as.factor(age)25   0.183     0.0133     13.8  1.84e-43   0.157    0.209  
10 as.factor(age)26   0.179     0.0134     13.4  8.42e-41   0.153    0.205  
# … with 48 more rows

ITT: Methadone v. Outpatient

# A tibble: 2 × 7
  term        estimate std.error statistic   p.value conf.low conf.high
  <chr>          <dbl>     <dbl>     <dbl>     <dbl>    <dbl>     <dbl>
1 (Intercept)   0.0192  0.000794     24.2  4.32e-128   0.0176    0.0208
2 treated      -0.0192  0.00229      -8.40 4.72e- 17  -0.0237   -0.0147

First Stage: Methadone v. Outpatient

# A tibble: 59 × 7
   term             estimate std.error statistic  p.value conf.low conf.high
   <chr>               <dbl>     <dbl>     <dbl>    <dbl>    <dbl>     <dbl>
 1 (Intercept)      -0.175     0.0143    -12.2   5.67e-34 -0.203    -0.146  
 2 treated           0.530     0.00324   164.    0         0.523     0.536  
 3 as.factor(age)19 -0.00523   0.0112     -0.465 6.42e- 1 -0.0273    0.0168 
 4 as.factor(age)20 -0.0252    0.00958    -2.63  8.57e- 3 -0.0439   -0.00640
 5 as.factor(age)21 -0.0148    0.00960    -1.54  1.24e- 1 -0.0336    0.00404
 6 as.factor(age)22 -0.00424   0.00900    -0.471 6.38e- 1 -0.0219    0.0134 
 7 as.factor(age)23  0.0101    0.00898     1.13  2.58e- 1 -0.00745   0.0277 
 8 as.factor(age)24 -0.0219    0.00893    -2.45  1.43e- 2 -0.0394   -0.00437
 9 as.factor(age)25 -0.0156    0.00880    -1.77  7.61e- 2 -0.0329    0.00164
10 as.factor(age)26 -0.0118    0.00869    -1.35  1.76e- 1 -0.0288    0.00527
# … with 49 more rows

LATE: Methadone v. Outpatient

# A tibble: 59 × 7
   term             estimate std.error statistic  p.value conf.low conf.high
   <chr>               <dbl>     <dbl>     <dbl>    <dbl>    <dbl>     <dbl>
 1 (Intercept)       0.0343    0.0115      2.99  2.78e- 3  0.0118     0.0568
 2 meth_pred        -0.0210    0.00492    -4.27  1.97e- 5 -0.0306    -0.0114
 3 as.factor(age)19  0.00391   0.00904     0.432 6.65e- 1 -0.0138     0.0216
 4 as.factor(age)20  0.121     0.00770    15.7   4.74e-55  0.105      0.136 
 5 as.factor(age)21  0.00262   0.00772     0.340 7.34e- 1 -0.0125     0.0178
 6 as.factor(age)22  0.0158    0.00724     2.19  2.87e- 2  0.00164    0.0300
 7 as.factor(age)23  0.0158    0.00722     2.18  2.90e- 2  0.00161    0.0299
 8 as.factor(age)24  0.00990   0.00718     1.38  1.68e- 1 -0.00417    0.0240
 9 as.factor(age)25  0.0257    0.00707     3.63  2.82e- 4  0.0118     0.0395
10 as.factor(age)26  0.0149    0.00698     2.14  3.25e- 2  0.00125    0.0286
# … with 49 more rows

ITT: IP NR-NTX v. Outpatient

# A tibble: 2 × 7
  term        estimate std.error statistic  p.value conf.low conf.high
  <chr>          <dbl>     <dbl>     <dbl>    <dbl>    <dbl>     <dbl>
1 (Intercept)   0.0811   0.00157      51.6 0          0.0780    0.0841
2 treated      -0.0355   0.00284     -12.5 5.55e-36  -0.0411   -0.0300

First Stage: IP NR-NTX v. Outpatient

# A tibble: 59 × 7
   term             estimate std.error statistic      p.value conf.low conf.high
   <chr>               <dbl>     <dbl>     <dbl>        <dbl>    <dbl>     <dbl>
 1 (Intercept)       -0.400    0.00967    -41.4  0             -0.419   -0.381  
 2 treated            0.396    0.00281    141.   0              0.391    0.402  
 3 as.factor(age)19  -0.0251   0.0103      -2.44 0.0148        -0.0453  -0.00492
 4 as.factor(age)20  -0.0474   0.00887     -5.34 0.0000000942  -0.0648  -0.0300 
 5 as.factor(age)21  -0.0356   0.00893     -3.99 0.0000671     -0.0531  -0.0181 
 6 as.factor(age)22  -0.0298   0.00856     -3.49 0.000490      -0.0466  -0.0131 
 7 as.factor(age)23  -0.0197   0.00825     -2.39 0.0170        -0.0358  -0.00351
 8 as.factor(age)24  -0.0381   0.00834     -4.57 0.00000491    -0.0545  -0.0218 
 9 as.factor(age)25  -0.0278   0.00808     -3.44 0.000591      -0.0436  -0.0119 
10 as.factor(age)26  -0.0286   0.00791     -3.61 0.000306      -0.0441  -0.0131 
# … with 49 more rows

LATE: IP NR-NTX v. Outpatient

# A tibble: 59 × 7
   term              estimate std.error statistic  p.value conf.low conf.high
   <chr>                <dbl>     <dbl>     <dbl>    <dbl>    <dbl>     <dbl>
 1 (Intercept)       0.215       0.0156   13.8    2.83e-43  0.184      0.245 
 2 ipnx_pred        -0.139       0.0119  -11.7    1.42e-31 -0.162     -0.116 
 3 as.factor(age)19  0.0260      0.0172    1.51   1.32e- 1 -0.00780    0.0597
 4 as.factor(age)20  0.109       0.0148    7.34   2.21e-13  0.0798     0.138 
 5 as.factor(age)21  0.000485    0.0149    0.0325 9.74e- 1 -0.0288     0.0298
 6 as.factor(age)22  0.0138      0.0143    0.966  3.34e- 1 -0.0142     0.0419
 7 as.factor(age)23  0.110       0.0138    7.95   1.94e-15  0.0826     0.137 
 8 as.factor(age)24  0.0761      0.0140    5.46   4.90e- 8  0.0488     0.103 
 9 as.factor(age)25  0.0505      0.0135    3.73   1.90e- 4  0.0240     0.0770
10 as.factor(age)26  0.116       0.0132    8.78   1.67e-18  0.0902     0.142 
# … with 49 more rows
